/Users/anjaneyadatla/Downloads/SpringBootFileUpload/src/main/java/com/a2nine/uploadfiles/FileUploaderApplication.java
/Users/anjaneyadatla/Downloads/SpringBootFileUpload/src/main/java/com/a2nine/uploadfiles/config/CORSConfig.java
/Users/anjaneyadatla/Downloads/SpringBootFileUpload/src/main/java/com/a2nine/uploadfiles/rest/UploadController.java
/Users/anjaneyadatla/Downloads/SpringBootFileUpload/src/main/java/com/a2nine/uploadfiles/config/WebSecurityConfig.java
/Users/anjaneyadatla/Downloads/SpringBootFileUpload/src/main/java/com/a2nine/uploadfiles/service/StorageService.java
